…
      #Tidy up df data from wide long format
      df.tidying <- gather(df,data, Measurement, Measurement_1:Measurement_3)
     
      #Now group data by the ID column
      
      groupMD <- group_by(df.tidying, ID)
      

    #NOW Summarize  mean value each individual's measurements
      print <- summarise (groupMD, mean(Measurement))
      
    #Print out final data frame
    print

    ## # A tibble: 40 × 2
    ##       ID `mean(Measurement)`
    ##    <int>               <dbl>
    ## 1      1            24.33333
    ## 2      2            26.00000
    ## 3      3            24.66667
    ## 4      4            23.66667
    ## 5      5            25.00000
    ## 6      6            23.66667
    ## 7      7            26.66667
    ## 8      8            23.33333
    ## 9      9            22.66667
    ## 10    10            24.00000
    ## # ... with 30 more rows
…
